^C:\USERS\RUBEN\DOCUMENTS\UOC\PROGRAMACIONGRAFICA\PEC2\PACMAN\_BUILD\OBJ\X64\DEBUG\RAYLIB\RAUDIO.OBJ|C:\USERS\RUBEN\DOCUMENTS\UOC\PROGRAMACIONGRAFICA\PEC2\PACMAN\_BUILD\OBJ\X64\DEBUG\RAYLIB\RCORE.OBJ|C:\USERS\RUBEN\DOCUMENTS\UOC\PROGRAMACIONGRAFICA\PEC2\PACMAN\_BUILD\OBJ\X64\DEBUG\RAYLIB\RGLFW.OBJ|C:\USERS\RUBEN\DOCUMENTS\UOC\PROGRAMACIONGRAFICA\PEC2\PACMAN\_BUILD\OBJ\X64\DEBUG\RAYLIB\RMODELS.OBJ|C:\USERS\RUBEN\DOCUMENTS\UOC\PROGRAMACIONGRAFICA\PEC2\PACMAN\_BUILD\OBJ\X64\DEBUG\RAYLIB\RSHAPES.OBJ|C:\USERS\RUBEN\DOCUMENTS\UOC\PROGRAMACIONGRAFICA\PEC2\PACMAN\_BUILD\OBJ\X64\DEBUG\RAYLIB\RTEXT.OBJ|C:\USERS\RUBEN\DOCUMENTS\UOC\PROGRAMACIONGRAFICA\PEC2\PACMAN\_BUILD\OBJ\X64\DEBUG\RAYLIB\RTEXTURES.OBJ|C:\USERS\RUBEN\DOCUMENTS\UOC\PROGRAMACIONGRAFICA\PEC2\PACMAN\_BUILD\OBJ\X64\DEBUG\RAYLIB\UTILS.OBJ
C:\USERS\RUBEN\DOCUMENTS\UOC\PROGRAMACIONGRAFICA\PEC2\PACMAN\_BUILD\OBJ\X64\DEBUG\RAYLIB\RAUDIO.OBJ
C:\WINDOWS\SYSTEM32\TZRES.DLL
C:\USERS\RUBEN\DOCUMENTS\UOC\PROGRAMACIONGRAFICA\PEC2\PACMAN\_BUILD\OBJ\X64\DEBUG\RAYLIB\RCORE.OBJ
C:\USERS\RUBEN\DOCUMENTS\UOC\PROGRAMACIONGRAFICA\PEC2\PACMAN\_BUILD\OBJ\X64\DEBUG\RAYLIB\RGLFW.OBJ
C:\USERS\RUBEN\DOCUMENTS\UOC\PROGRAMACIONGRAFICA\PEC2\PACMAN\_BUILD\OBJ\X64\DEBUG\RAYLIB\RMODELS.OBJ
C:\USERS\RUBEN\DOCUMENTS\UOC\PROGRAMACIONGRAFICA\PEC2\PACMAN\_BUILD\OBJ\X64\DEBUG\RAYLIB\RSHAPES.OBJ
C:\USERS\RUBEN\DOCUMENTS\UOC\PROGRAMACIONGRAFICA\PEC2\PACMAN\_BUILD\OBJ\X64\DEBUG\RAYLIB\RTEXT.OBJ
C:\USERS\RUBEN\DOCUMENTS\UOC\PROGRAMACIONGRAFICA\PEC2\PACMAN\_BUILD\OBJ\X64\DEBUG\RAYLIB\RTEXTURES.OBJ
C:\USERS\RUBEN\DOCUMENTS\UOC\PROGRAMACIONGRAFICA\PEC2\PACMAN\_BUILD\OBJ\X64\DEBUG\RAYLIB\UTILS.OBJ
C:\WINDOWS\GLOBALIZATION\SORTING\SORTDEFAULT.NLS
