^C:\USERS\RUBEN\DOCUMENTS\UOC\PROGRAMACIONGRAFICA\PEC2\PACMAN\_BIN\DEBUG\RAYLIB.LIB|C:\USERS\RUBEN\DOCUMENTS\UOC\PROGRAMACIONGRAFICA\PEC2\PACMAN\_BUILD\OBJ\X64\DEBUG\PACMAN\AUDIOMANAGER.OBJ|C:\USERS\RUBEN\DOCUMENTS\UOC\PROGRAMACIONGRAFICA\PEC2\PACMAN\_BUILD\OBJ\X64\DEBUG\PACMAN\ENEMY.OBJ|C:\USERS\RUBEN\DOCUMENTS\UOC\PROGRAMACIONGRAFICA\PEC2\PACMAN\_BUILD\OBJ\X64\DEBUG\PACMAN\GAMEMANAGER.OBJ|C:\USERS\RUBEN\DOCUMENTS\UOC\PROGRAMACIONGRAFICA\PEC2\PACMAN\_BUILD\OBJ\X64\DEBUG\PACMAN\PACMAN.OBJ|C:\USERS\RUBEN\DOCUMENTS\UOC\PROGRAMACIONGRAFICA\PEC2\PACMAN\_BUILD\OBJ\X64\DEBUG\PACMAN\PLAYER.OBJ|C:\USERS\RUBEN\DOCUMENTS\UOC\PROGRAMACIONGRAFICA\PEC2\PACMAN\_BUILD\OBJ\X64\DEBUG\PACMAN\SCREEN_ENDING.OBJ|C:\USERS\RUBEN\DOCUMENTS\UOC\PROGRAMACIONGRAFICA\PEC2\PACMAN\_BUILD\OBJ\X64\DEBUG\PACMAN\SCREEN_GAMEPLAY.OBJ|C:\USERS\RUBEN\DOCUMENTS\UOC\PROGRAMACIONGRAFICA\PEC2\PACMAN\_BUILD\OBJ\X64\DEBUG\PACMAN\SCREEN_LOGO.OBJ|C:\USERS\RUBEN\DOCUMENTS\UOC\PROGRAMACIONGRAFICA\PEC2\PACMAN\_BUILD\OBJ\X64\DEBUG\PACMAN\SCREEN_OPTIONS.OBJ|C:\USERS\RUBEN\DOCUMENTS\UOC\PROGRAMACIONGRAFICA\PEC2\PACMAN\_BUILD\OBJ\X64\DEBUG\PACMAN\SCREEN_TITLE.OBJ|C:\USERS\RUBEN\DOCUMENTS\UOC\PROGRAMACIONGRAFICA\PEC2\PACMAN\_BUILD\OBJ\X64\DEBUG\PACMAN\TEXTUREMANAGER.OBJ
C:\USERS\RUBEN\DOCUMENTS\UOC\PROGRAMACIONGRAFICA\PEC2\PACMAN\_BIN\DEBUG\PACMAN.EXE
C:\USERS\RUBEN\DOCUMENTS\UOC\PROGRAMACIONGRAFICA\PEC2\PACMAN\_BUILD\OBJ\X64\DEBUG\PACMAN\PACMAN.ILK
C:\USERS\RUBEN\DOCUMENTS\UOC\PROGRAMACIONGRAFICA\PEC2\PACMAN\_BIN\DEBUG\PACMAN.PDB
